…
The package comes with a simulated datasets of HoNOS scores (13-items)
that is available in “long” as well as “wide” format.

### Long format

-   `id`: Unique identifier
-   `date`: Date variable
-   `measure`: Description of measure
-   `item`: Number of HoNOS item
-   `value`: HoNOS score

``` r
honos_long %>% 
  dplyr::filter(id %in% paste0("id", 1:5))
#> # A tibble: 195 x 5
#>    id    date       measure item  value
#>    <fct> <date>     <chr>   <fct> <dbl>
#>  1 id1   2018-08-05 honos   1         2
#>  2 id1   2018-08-05 honos   2         4
#>  3 id1   2018-08-05 honos   3         2
#>  4 id1   2018-08-05 honos   4         3
#>  5 id1   2018-08-05 honos   5         2
#>  6 id1   2018-08-05 honos   6        NA
#>  7 id1   2018-08-05 honos   7         1
#>  8 id1   2018-08-05 honos   8         0
#>  9 id1   2018-08-05 honos   9         1
#> 10 id1   2018-08-05 honos   10        3
#> # ... with 185 more rows
```
…
## Tidy HoNOS data

-   `as_item_desc()`: Add item descriptions
-   `as_severity_desc()`: Add severity descriptions

``` r
honos_long %>% 
  mutate(item_desc = as_item_desc(item, n_items = 13)) %>% 
  mutate(value = as_severity_desc(value, na_level = "I AM A MISSING VALUE"))
#> # A tibble: 39,000 x 6
#>    id    date       measure item  value           item_desc                     
#>    <fct> <date>     <chr>   <fct> <fct>           <fct>                         
#>  1 id1   2018-08-05 honos   1     Mild problem    Item 1: Overactive, aggressiv~
#>  2 id1   2018-08-05 honos   2     Severe to very~ Item 2: Non-accidental self-i~
#>  3 id1   2018-08-05 honos   3     Mild problem    Item 3: Problem drinking or d~
#>  4 id1   2018-08-05 honos   4     Moderately sev~ Item 4: Cognitive problems    
#>  5 id1   2018-08-05 honos   5     Mild problem    Item 5: Physical illness or d~
#>  6 id1   2018-08-05 honos   6     I AM A MISSING~ Item 6: Hallucinations and De~
#>  7 id1   2018-08-05 honos   7     Minor problem   Item 7: Depressed mood        
#>  8 id1   2018-08-05 honos   8     No problem      Item 8: Other mental and beha~
#>  9 id1   2018-08-05 honos   9     Minor problem   Item 9: Relationships         
#> 10 id1   2018-08-05 honos   10    Moderately sev~ Item 10: Activities of daily ~
#> # ... with 38,990 more rows
```
…
