Example HoNOS datasets • honos
…
There are two options to create a long data set:

Create a long data set that includes item 8 problem description and additional specification variables pivot = "all_items"

honos_long <- honos_data %>% 
  pivot_honos_longer(value_vars_current = c("q1", "q2", "q3", "q4", "q5", "q6", "q7", 
                                            "q8", "q9", "q10", "q11", "q12", "q13"),
                     prob_var_item8 = c("q8_prob"),
                     spec_var_item8 = c("q8_spec"),
                     value_vars_history = c("qa", "qb", "qc", "qd", "qe"), 
                     pivot = "all_items")

honos_long
#> # A tibble: 360 x 8
#>    id    date       team  stage measure  item type  value
#>    <chr> <chr>      <chr> <chr> <chr>   <dbl> <chr> <chr>
#>  1 id1   2020-04-20 team2 pre   honos       1 value 1    
#>  2 id1   2020-04-20 team2 pre   honos       2 value 2    
#>  3 id1   2020-04-20 team2 pre   honos       3 value 4    
#>  4 id1   2020-04-20 team2 pre   honos       4 value 2    
#>  5 id1   2020-04-20 team2 pre   honos       5 value 2    
#>  6 id1   2020-04-20 team2 pre   honos       6 value 4    
#>  7 id1   2020-04-20 team2 pre   honos       7 value 3    
#>  8 id1   2020-04-20 team2 pre   honos       8 value 4    
#>  9 id1   2020-04-20 team2 pre   honos       8 prob  A    
#> 10 id1   2020-04-20 team2 pre   honos       8 spec  <NA> 
#> # … with 350 more rows

Create a long data set with that includes only scores in long format pivot = "item_scores"

honos_longish <- honos_data %>% 
  pivot_honos_longer(value_vars_current = c("q1", "q2", "q3", "q4", "q5", "q6", "q7", 
                                            "q8", "q9", "q10", "q11", "q12", "q13"),
                     prob_var_item8 = c("q8_prob"),
                     spec_var_item8 = c("q8_spec"),
                     value_vars_history = c("qa", "qb", "qc", "qd", "qe"), 
                     pivot = "item_scores")

honos_longish
#> # A tibble: 324 x 9
#>    id    date       team  stage measure  item value prob  spec 
#>    <chr> <chr>      <chr> <chr> <chr>   <dbl> <dbl> <chr> <chr>
#>  1 id1   2020-04-20 team2 pre   honos       1     1 <NA>  <NA> 
#>  2 id1   2020-04-20 team2 pre   honos       2     2 <NA>  <NA> 
#>  3 id1   2020-04-20 team2 pre   honos       3     4 <NA>  <NA> 
#>  4 id1   2020-04-20 team2 pre   honos       4     2 <NA>  <NA> 
#>  5 id1   2020-04-20 team2 pre   honos       5     2 <NA>  <NA> 
#>  6 id1   2020-04-20 team2 pre   honos       6     4 <NA>  <NA> 
#>  7 id1   2020-04-20 team2 pre   honos       7     3 <NA>  <NA> 
#>  8 id1   2020-04-20 team2 pre   honos       8     4 A     <NA> 
#>  9 id1   2020-04-20 team2 pre   honos       9     2 <NA>  <NA> 
#> 10 id1   2020-04-20 team2 pre   honos      10     3 <NA>  <NA> 
#> # … with 314 more rows
…
